<svg width="32" height="32" viewBox="0 0 32 32" fill="none" xmlns="http://www.w3.org/2000/svg">
<path d="M31.7222 17.7706L24.237 13.492V4.93492C24.237 4.75665 24.1389 4.57837 23.9755 4.49734L16.2451 0.0729299C16.0817 -0.02431 15.8856 -0.02431 15.7385 0.0729299L8.00817 4.49734C7.84474 4.59458 7.74668 4.75665 7.74668 4.93492V13.492L0.261491 17.7706C0.098059 17.8678 0 18.0299 0 18.2082V27.0732C0 27.2515 0.098059 27.4135 0.261491 27.5108L7.99183 31.9352C8.07354 31.9838 8.15526 32 8.25332 32C8.35138 32 8.43309 31.9838 8.51481 31.9352L16 27.6566L23.4852 31.9352C23.5669 31.9838 23.6486 32 23.7467 32C23.8284 32 23.9265 31.9838 24.0082 31.9352L31.7385 27.5108C31.9019 27.4135 32 27.2515 32 27.0732V18.2082C31.9837 18.0137 31.8856 17.8516 31.7222 17.7706ZM15.477 26.1818L9.2666 22.6326L15.477 19.0833V26.1818ZM22.7007 13.7675L16.4903 17.3168V10.2183L22.7007 13.7675ZM15.477 17.3168L9.2666 13.7675L15.477 10.2183V17.3168ZM17.0133 18.2082L23.7303 14.3672L30.4474 18.2082L23.7303 22.0491L17.0133 18.2082ZM23.2237 12.8924L17.0133 9.34313L23.2237 5.79387V12.8924ZM14.9704 9.34313L8.75996 12.8924V5.79387L14.9704 9.34313ZM7.74668 30.6062L1.02962 26.7653V19.0671L7.74668 22.9081V30.6062ZM8.75996 30.6062V23.5077L14.9704 27.057L8.75996 30.6062ZM30.954 26.7653L24.237 30.6062V22.9243L30.954 19.0833V26.7653Z" fill="white"/>
</svg>
