<svg width="33" height="14" viewBox="0 0 33 14" fill="none" xmlns="http://www.w3.org/2000/svg">
<path d="M29.0537 1.19172C29.0537 0.534605 29.5799 0 30.2267 0C30.8735 0 31.3997 0.534605 31.3997 1.19172C31.3997 1.84884 30.8735 2.38345 30.2267 2.38345C29.5799 2.37231 29.0537 1.84884 29.0537 1.19172Z" fill="white"/>
<path d="M31.5859 2.82898C32.3752 2.90694 33.0001 3.5752 33.0001 4.41052V4.80033V4.9674V7.69611C33.0001 7.95228 32.7918 8.15275 32.5506 8.15275C32.2985 8.15275 32.1011 7.94114 32.1011 7.69611V4.86716C32.1011 4.75578 32.0682 4.62213 31.8819 4.62213C31.7503 4.62213 31.7174 4.76692 31.7174 4.85602V13.3317C31.7174 13.6993 31.4324 14 31.0706 14C30.7089 14 30.4129 13.6993 30.4129 13.3317V8.45347C30.4129 8.39778 30.3909 8.26413 30.2265 8.26413C30.062 8.26413 30.0401 8.40892 30.0401 8.45347V13.3317C30.0401 13.6993 29.7551 14 29.3933 14C29.0315 14 28.7465 13.6993 28.7465 13.3317V4.85602C28.7465 4.76692 28.7136 4.62213 28.5821 4.62213C28.3957 4.62213 28.3628 4.76692 28.3628 4.86716V7.69611C28.3628 7.95228 28.1545 8.15275 27.9133 8.15275C27.6722 8.15275 27.4639 7.94114 27.4639 7.69611V4.9674V4.80033V4.41052C27.4639 3.58634 28.0887 2.90694 28.8781 2.82898C28.9 2.82898 28.9329 2.81784 28.9658 2.81784H30.2484H31.5201C31.5311 2.82898 31.564 2.82898 31.5859 2.82898Z" fill="white"/>
<path d="M22.1041 1.81542C22.1041 1.19171 21.6108 0.690521 20.9969 0.690521C20.383 0.690521 19.8896 1.19171 19.8896 1.81542C19.8896 2.43913 20.383 2.94032 20.9969 2.94032C21.6108 2.94032 22.1041 2.42799 22.1041 1.81542Z" fill="white"/>
<path d="M18.7707 4.35477L17.8498 7.39534C17.8498 7.39534 17.6854 7.95221 18.1458 8.097C18.6063 8.24179 18.7488 7.69605 18.7488 7.69605L19.4943 5.15668C19.4943 5.15668 19.5381 4.9562 19.6806 5.00075C19.8231 5.0453 19.7683 5.24578 19.7683 5.24578L18.4747 10.0015H19.6697V13.4096C19.6697 13.7326 19.9328 13.9888 20.2507 13.9888C20.5686 13.9888 20.8208 13.7215 20.8208 13.4096V10.0127H20.9852H21.1496V13.4208C21.1496 13.7438 21.4127 13.9999 21.7307 13.9999C22.0486 13.9999 22.3117 13.7326 22.3117 13.4208V10.0127H23.5176L22.224 5.25692C22.224 5.25692 22.1692 5.0453 22.3117 5.01189C22.4542 4.96734 22.4981 5.16781 22.4981 5.16781L23.2435 7.70719C23.2435 7.70719 23.386 8.25293 23.8465 8.10814C24.3179 7.96335 24.1534 7.40647 24.1534 7.40647L23.2326 4.36591C23.2326 4.36591 22.9037 3.48604 22.1801 3.48604H21.0071H19.8341C19.0996 3.4749 18.7707 4.35477 18.7707 4.35477Z" fill="white"/>
<path d="M15.4703 1.81542C15.4703 1.19171 14.977 0.690521 14.3631 0.690521C13.7492 0.690521 13.2559 1.19171 13.2559 1.81542C13.2559 2.43913 13.7492 2.94032 14.3631 2.94032C14.977 2.94032 15.4703 2.42799 15.4703 1.81542Z" fill="white"/>
<path d="M12.1379 4.35477L11.217 7.39534C11.217 7.39534 11.0526 7.95221 11.513 8.097C11.9735 8.24179 12.116 7.69605 12.116 7.69605L12.8614 5.15668C12.8614 5.15668 12.9053 4.9562 13.0478 5.00075C13.1903 5.0453 13.1355 5.24578 13.1355 5.24578L11.8419 10.0015H13.0478V13.4096C13.0478 13.7326 13.3109 13.9888 13.6288 13.9888C13.9468 13.9888 14.2099 13.7215 14.2099 13.4096V10.0127H14.3743H14.5388V13.4208C14.5388 13.7438 14.7909 13.9999 15.1198 13.9999C15.4377 13.9999 15.7008 13.7326 15.7008 13.4208V10.0127H16.9067L15.6131 5.25692C15.6131 5.25692 15.5583 5.0453 15.7008 5.01189C15.8433 4.96734 15.8872 5.16781 15.8872 5.16781L16.6326 7.70719C16.6326 7.70719 16.7752 8.25293 17.2356 8.10814C17.707 7.96335 17.5426 7.40647 17.5426 7.40647L16.6217 4.36591C16.6217 4.36591 16.2928 3.48604 15.5693 3.48604H14.3962H13.2232C12.4668 3.4749 12.1379 4.35477 12.1379 4.35477Z" fill="white"/>
<path d="M25.8193 8.10815C26.3236 8.10815 26.7402 7.68492 26.7402 7.17259C26.7402 6.64912 26.3236 6.23703 25.8193 6.23703C25.3041 6.23703 24.8984 6.66026 24.8984 7.17259C24.8984 7.68492 25.315 8.10815 25.8193 8.10815Z" fill="white"/>
<path d="M23.6169 11.0151C23.573 11.1264 23.5292 11.3603 23.7484 11.4606C24.0006 11.5831 24.1431 11.3269 24.1431 11.3269L24.6474 9.70082C24.6474 9.70082 24.7351 9.58944 24.7351 9.70082V13.521C24.7351 13.7883 24.9434 13.9999 25.2065 13.9999C25.4696 13.9999 25.6779 13.7883 25.6779 13.521V12.0174C25.6779 12.0174 25.645 11.8058 25.8204 11.8058C25.9848 11.8058 25.9629 12.0174 25.9629 12.0174V13.521C25.9629 13.7883 26.1712 13.9999 26.4343 13.9999C26.6974 13.9999 26.9057 13.7883 26.9057 13.521V9.70082C26.9057 9.58944 26.9605 9.66741 26.9605 9.66741L27.3552 10.7812C27.3552 10.7812 27.5306 11.2824 27.5744 11.3046C27.7498 11.3826 27.9581 11.2935 28.0349 11.1153C28.0787 10.9928 28.0678 10.8703 28.002 10.77C27.991 10.7366 27.41 9.29987 27.3442 9.09939C27.1359 8.48682 26.7632 8.48682 26.3904 8.47568C26.0287 8.46455 25.8094 8.47568 25.8094 8.47568C25.8094 8.47568 25.5792 8.46455 25.0968 8.47568C24.6145 8.48682 24.461 8.74299 23.9348 10.124C23.869 10.3245 23.6169 10.9705 23.6169 11.0151Z" fill="white"/>
<path d="M5.59311 1.19172C5.59311 0.534605 5.06689 0 4.42009 0C3.77328 0 3.24707 0.534605 3.24707 1.19172C3.24707 1.84884 3.77328 2.38345 4.42009 2.38345C5.06689 2.37231 5.59311 1.84884 5.59311 1.19172Z" fill="white"/>
<path d="M3.04994 2.82898C2.26062 2.90694 1.63574 3.5752 1.63574 4.41052V4.80033V4.9674V7.69611C1.63574 7.95228 1.84404 8.15275 2.08522 8.15275C2.33736 8.15275 2.53469 7.94114 2.53469 7.69611V4.86716C2.53469 4.75578 2.56758 4.62213 2.75395 4.62213C2.8855 4.62213 2.91839 4.76692 2.91839 4.85602V13.3317C2.91839 13.6993 3.21438 14 3.56519 14C3.92697 14 4.212 13.6993 4.212 13.3317V8.45347C4.212 8.39778 4.23392 8.26413 4.39837 8.26413C4.56281 8.26413 4.58473 8.40892 4.58473 8.45347V13.3317C4.58473 13.6993 4.86977 14 5.23154 14C5.59331 14 5.87834 13.6993 5.87834 13.3317V4.85602C5.87834 4.76692 5.91123 4.62213 6.04278 4.62213C6.22915 4.62213 6.26204 4.76692 6.26204 4.86716V7.69611C6.26204 7.95228 6.47033 8.15275 6.71151 8.15275C6.96366 8.15275 7.16099 7.94114 7.16099 7.69611V4.9674V4.80033V4.41052C7.16099 3.58634 6.53611 2.90694 5.74679 2.82898C5.72486 2.82898 5.69197 2.81784 5.65909 2.81784H4.42029H3.13764C3.10476 2.82898 3.08283 2.82898 3.04994 2.82898Z" fill="white"/>
<path d="M2.0305 8.1861L1 13.766" stroke="white" stroke-width="0.454" stroke-miterlimit="10" stroke-linecap="round"/>
<path d="M7.75281 7.61811C7.69799 7.51787 7.58837 7.45105 7.46778 7.45105C7.28141 7.45105 7.12793 7.60697 7.12793 7.78518C7.12793 7.84086 7.16082 7.92997 7.16082 7.92997L8.09266 9.63402C8.09266 9.63402 8.14747 9.75653 8.14747 9.85677V13.521C8.14747 13.7772 8.35576 13.9777 8.60791 13.9777C8.86005 13.9777 9.05738 13.7772 9.05738 13.521V12.0732C9.05738 12.0732 9.03546 11.8727 9.1999 11.8727C9.36434 11.8727 9.33145 12.0732 9.33145 12.0732V13.521C9.33145 13.7772 9.53974 13.9777 9.79189 13.9777C10.044 13.9777 10.2414 13.7772 10.2414 13.521V9.85677C10.2414 9.7454 10.2962 9.63402 10.2962 9.63402L11.1513 8.05248C11.1513 8.05248 11.2609 7.82973 11.2609 7.77404C11.2609 7.5847 11.1074 7.43991 10.9211 7.43991C10.8005 7.43991 10.6908 7.50674 10.636 7.59584C10.6031 7.61811 10.1756 8.39774 10.0331 8.54253C9.87959 8.69846 9.74804 8.67619 9.74804 8.67619H9.18893H8.62983C8.62983 8.67619 8.49828 8.69846 8.3448 8.54253C8.21325 8.42002 7.7857 7.64039 7.75281 7.61811Z" fill="white"/>
<path d="M9.20017 8.10815C9.70446 8.10815 10.121 7.68492 10.121 7.17259C10.121 6.64912 9.70446 6.23703 9.20017 6.23703C8.68492 6.23703 8.2793 6.66026 8.2793 7.17259C8.2793 7.68492 8.68492 8.10815 9.20017 8.10815Z" fill="white"/>
<path d="M9.19983 9.42242L10.2413 10.1909L10.7346 12.0398H9.19983H7.66504L8.15837 10.1909L9.19983 9.42242Z" fill="white"/>
</svg>
