<svg width="32" height="32" viewBox="0 0 32 32" fill="none" xmlns="http://www.w3.org/2000/svg">
<path d="M27.5109 0.263474C27.5109 0.263474 26.8702 1.18874 27.0434 2.077C27.2165 2.96527 28.1861 3.50192 28.1861 3.50192C28.1861 3.50192 28.8268 2.57665 28.6363 1.68839C28.4632 0.800131 27.5109 0.263474 27.5109 0.263474Z" fill="white"/>
<path d="M26.4574 5.51883C26.4574 5.51883 27.0981 4.59356 26.9076 3.7053C26.7172 2.81704 25.7649 2.28038 25.7649 2.28038C25.7649 2.28038 25.1242 3.20565 25.3147 4.09391C25.5051 4.98217 26.4574 5.51883 26.4574 5.51883Z" fill="white"/>
<path d="M29.123 4.51945C29.123 4.51945 29.7983 5.25967 30.5775 5.18564C31.3567 5.11162 31.928 4.26037 31.928 4.26037C31.928 4.26037 31.2528 3.52016 30.4736 3.59418C29.6944 3.6682 29.123 4.51945 29.123 4.51945Z" fill="white"/>
<path d="M30.2315 0.596362C29.5908 1.28106 29.6947 2.50242 29.6947 2.50242C29.6947 2.50242 30.8202 2.61345 31.4435 1.91025C32.0668 1.20704 31.9976 0.00418865 31.9976 0.00418865C31.9976 0.00418865 30.8721 -0.0883385 30.2315 0.596362Z" fill="white"/>
<path d="M28.8472 7.2582C29.6263 7.35073 30.3536 6.64752 30.3536 6.64752C30.3536 6.64752 29.8341 5.77777 29.055 5.68524C28.2758 5.57421 27.5312 6.29592 27.5312 6.29592C27.5312 6.29592 28.068 7.16568 28.8472 7.2582Z" fill="white"/>
<path d="M29.54 20.5825H23.7396C23.2894 20.5825 22.9258 20.9711 22.9258 21.4523C22.9258 21.9334 23.2894 22.322 23.7396 22.322H29.54C29.9902 22.322 30.3538 21.9334 30.3538 21.4523C30.3538 20.9711 29.9902 20.5825 29.54 20.5825Z" fill="white"/>
<path d="M29.54 30.2605H23.7396C23.2894 30.2605 22.9258 30.6491 22.9258 31.1302C22.9258 31.6114 23.2894 32 23.7396 32H29.54C29.9902 32 30.3538 31.6114 30.3538 31.1302C30.3538 30.6491 29.9902 30.2605 29.54 30.2605Z" fill="white"/>
<path d="M3.46048 18.4544C3.32196 18.4174 3.18344 18.3804 3.04492 18.3434C3.04492 18.3434 3.20075 18.3989 3.46048 18.4544Z" fill="white"/>
<path d="M29.3131 22.9509H23.9455C23.6858 22.9509 23.478 23.1729 23.478 23.4505V25.19L19.9631 25.5971L14.8379 25.4676V22.1181C15.5132 22.0256 16.2058 21.8775 16.8811 21.674C21.8158 20.1935 22.8893 16.8996 22.7854 13.8832C22.6815 10.8113 23.5992 9.62695 24.9151 9.09029C25.296 8.94225 25.677 8.84972 26.0059 8.7757C26.0233 9.53442 26.1618 10.4042 26.4734 11.459C26.5946 11.459 26.7159 11.4405 26.8197 11.422C26.4908 10.3487 26.3522 9.47891 26.3349 8.72018C27.0275 8.62766 27.5123 8.68317 27.5123 8.68317C27.5123 8.68317 27.0448 8.4241 26.4042 7.83192C26.6293 6.36999 27.4431 5.48173 28.2742 4.57497C28.7417 4.07532 29.2092 3.55717 29.5901 2.92799L29.2958 2.72443C28.9495 3.3166 28.482 3.81625 28.0318 4.31589C27.218 5.20415 26.3869 6.11092 26.1098 7.55434C25.8501 7.29527 25.5558 6.99918 25.2614 6.64758C24.0494 5.18565 22.4737 6.25896 20.2401 8.47961C18.0065 10.7003 15.2015 10.7743 12.4485 7.77641C8.84701 3.85326 5.69572 3.87176 3.53137 4.09383C5.02044 4.76002 5.52257 6.24046 6.28442 9.99706C7.06358 13.9387 9.05478 15.7337 11.7559 15.9743C10.4919 16.2149 10.1802 16.3999 8.15441 17.8804C6.57877 19.0462 4.36248 18.6761 3.46211 18.454C5.10701 19.0092 7.06358 20.8597 8.82969 21.5074C9.85126 21.8775 10.9248 22.1181 12.0329 22.2106V25.4121L2.31934 25.19V27.4292L19.9977 27.0035L23.5126 27.4107V29.1502C23.5126 29.4278 23.7204 29.6498 23.9801 29.6498H29.3477C29.6074 29.6498 29.8152 29.4278 29.8152 29.1502V23.4505C29.7806 23.1729 29.5728 22.9509 29.3131 22.9509ZM12.8467 22.2477C13.2276 22.2477 13.6086 22.2476 13.9895 22.2106V25.4491L12.8467 25.4121V22.2477Z" fill="white"/>
<path d="M1.78342 27.0591C1.78342 27.5403 1.47176 27.9104 1.09083 27.9104H0.692591C0.311666 27.9104 0 27.5218 0 27.0591V25.5232C0 25.042 0.311666 24.6719 0.692591 24.6719H1.10815C1.48907 24.6719 1.80074 25.0605 1.80074 25.5232V27.0591H1.78342Z" fill="white"/>
</svg>
