<svg width="32" height="32" viewBox="0 0 32 32" fill="none" xmlns="http://www.w3.org/2000/svg">
<path d="M32 14.2906C32 9.67521 28.4017 5.89744 23.9163 5.7265C22.7615 2.39316 19.6485 0 16 0C12.3515 0 9.23849 2.39316 8.08368 5.7265C3.59833 5.88034 0 9.65812 0 14.2906C0 17.0427 1.27197 19.4872 3.24686 21.0427C3.02929 21.7949 2.91213 22.5983 2.91213 23.4188C2.91213 28.1368 6.67782 32 11.3138 32C13.0711 32 14.6946 31.4359 16.0502 30.4957C17.3891 31.4017 18.9791 31.9316 20.7029 31.9316C25.3389 31.9316 29.1046 28.0855 29.1046 23.3504C29.1046 22.547 28.9874 21.7607 28.7866 21.0256C30.7448 19.4701 32 17.0256 32 14.2906ZM22.7113 8.5812C22.7113 12.0171 20.2176 14.8547 16.9874 15.3504C16.9372 15.0085 16.9038 14.6496 16.9038 14.3077C16.9038 10.8718 19.3975 8.03419 22.6276 7.53846C22.6778 7.86325 22.7113 8.22222 22.7113 8.5812ZM16.0335 28.2735C14.7782 27.0256 13.9916 25.2821 13.9916 23.3675C13.9916 21.4701 14.7448 19.7607 15.9665 18.5128C17.2218 19.7607 18.0084 21.4872 18.0084 23.4188C18.0084 25.3162 17.2552 27.0427 16.0335 28.2735ZM9.38912 7.52137C12.6192 8.01709 15.113 10.8547 15.113 14.2906C15.113 14.6496 15.0795 14.9915 15.0293 15.3333C11.7824 14.8547 9.2887 12 9.2887 8.5812C9.2887 8.22222 9.33891 7.86325 9.38912 7.52137ZM14.3933 17.3504C13.2887 19.5897 11.0293 21.1282 8.40167 21.1282C7.29707 21.1282 6.24268 20.8376 5.32218 20.359C6.41004 18.1197 8.68619 16.5812 11.2971 16.5812C12.4184 16.5812 13.4561 16.8547 14.3933 17.3504ZM17.59 17.2991C18.5272 16.8034 19.5649 16.5128 20.6862 16.5128C23.3305 16.5128 25.6067 18.0855 26.6946 20.3419C25.7573 20.8376 24.7029 21.1282 23.5983 21.1282C20.9707 21.1282 18.6946 19.5726 17.59 17.2991ZM16 1.7265C18.7448 1.7265 21.1046 3.4188 22.1423 5.84615C19.4142 6.34188 17.1381 8.17094 16 10.6667C14.8619 8.17094 12.5858 6.34188 9.85774 5.84615C10.8954 3.4188 13.2552 1.7265 16 1.7265ZM1.69038 14.2906C1.69038 10.7521 4.31799 7.84615 7.68201 7.48718C7.6318 7.82906 7.59833 8.20513 7.59833 8.5812C7.59833 11.094 8.65272 13.3504 10.3431 14.9231C7.56485 15.2479 5.18828 16.9744 3.89958 19.3846C2.54393 18.1026 1.69038 16.3077 1.69038 14.2906ZM4.60251 23.4188C4.60251 22.9402 4.65272 22.4615 4.75314 22C5.85774 22.547 7.09623 22.8547 8.40167 22.8547C9.87448 22.8547 11.2469 22.4615 12.4519 21.7778C12.3515 22.2906 12.3013 22.8205 12.3013 23.3504C12.3013 25.6752 13.205 27.7778 14.6778 29.3162C13.6904 29.9145 12.5356 30.2564 11.2971 30.2564C7.59833 30.2735 4.60251 27.1966 4.60251 23.4188ZM27.4142 23.3675C27.4142 27.1453 24.4017 30.2222 20.7029 30.2222C19.4979 30.2222 18.3766 29.8974 17.3891 29.3162C18.8117 27.7778 19.6987 25.7094 19.6987 23.4188C19.6987 22.8547 19.6485 22.3077 19.5481 21.7778C20.7531 22.4615 22.1423 22.8547 23.6151 22.8547C24.9205 22.8547 26.1757 22.547 27.2803 22C27.364 22.4444 27.4142 22.906 27.4142 23.3675ZM21.7071 14.8547C23.364 13.2821 24.4017 11.0598 24.4017 8.5641C24.4017 8.18804 24.3849 7.82906 24.3347 7.47009C27.6987 7.82906 30.3264 10.7521 30.3264 14.2735C30.3264 16.2735 29.4728 18.0855 28.1172 19.3333C26.8452 16.9231 24.4854 15.1966 21.7071 14.8547Z" fill="white"/>
</svg>
