<svg width="24" height="20" viewBox="0 0 24 20" fill="none" xmlns="http://www.w3.org/2000/svg">
<path d="M23.9535 14.5187C23.39 13.7825 19.7906 9.25253 14.7422 9.25253C10.3492 9.25253 5.65733 13.171 5.65733 13.171C5.65733 13.171 3.89786 9.61493 0.286918 9.27518C0.263919 9.27518 0.24092 9.27518 0.21792 9.27518H0.19492C0.114421 9.27518 0.0454228 9.35446 0.0569226 9.41108C0.0684224 9.46771 0.114422 9.53566 0.114422 9.53566C0.574414 10.2944 1.77039 12.4575 1.77039 14.6206C1.77039 16.7837 0.574414 18.9581 0.114422 19.7169L0.0799227 19.7622C0.0684229 19.7848 0.0569226 19.8075 0.0569226 19.8414C0.0569226 19.9207 0.114421 19.9773 0.19492 19.9773H0.229419C0.240919 19.9773 0.25242 19.9773 0.263919 19.9773C3.88636 19.6489 5.65733 16.0815 5.65733 16.0815C5.65733 16.0815 10.3492 20 14.7422 20C19.7906 20 23.4015 15.47 23.9535 14.7339C23.965 14.7112 23.9765 14.6999 23.988 14.6886C23.9995 14.6659 23.9995 14.6546 23.9995 14.6319C23.9995 14.6093 23.988 14.598 23.988 14.5753C23.988 14.564 23.9765 14.5413 23.9535 14.5187ZM17.5481 15.1982C16.7316 15.1982 16.0761 14.5527 16.0761 13.7486C16.0761 12.9445 16.7431 12.299 17.5481 12.299C18.3646 12.299 19.0201 12.9445 19.0201 13.7486C19.0201 14.5527 18.3646 15.1982 17.5481 15.1982Z" fill="white"/>
<path d="M5.32365 5.19818C5.33515 5.18685 5.34665 5.17553 5.35815 5.16421C5.38115 5.15288 5.40415 5.14155 5.43865 5.14155C5.47315 5.14155 5.50765 5.15288 5.54215 5.18685C5.54215 5.18685 5.54215 5.18685 5.54215 5.19818C8.3021 7.78029 11.1886 5.68516 11.7865 5.19818L11.844 5.14155C11.867 5.13023 11.8785 5.13023 11.9015 5.13023C11.9245 5.13023 11.9475 5.13023 11.959 5.14155L12.0165 5.19818C12.6145 5.68516 15.501 7.78029 18.2609 5.19818C18.2609 5.19818 18.2609 5.19818 18.2609 5.18685C18.2839 5.1642 18.3184 5.14155 18.3644 5.14155C18.3989 5.14155 18.4219 5.15288 18.4449 5.16421C18.4564 5.17553 18.4679 5.18685 18.4909 5.19818C19.0199 5.71913 21.3314 7.66704 23.7693 5.58323C23.7923 5.56058 23.8153 5.52661 23.8153 5.4813V4.4847C23.8153 4.40543 23.7463 4.33748 23.6658 4.33748C23.6543 4.33748 23.6428 4.33748 23.6313 4.3488C23.6083 4.36013 23.5853 4.37145 23.5623 4.38278C22.8149 4.7565 20.4804 5.62853 18.3759 3.6693C18.3529 3.64665 18.3299 3.63532 18.3184 3.61267C18.2954 3.60135 18.2839 3.60135 18.2609 3.60135C18.2494 3.60135 18.2264 3.60135 18.2149 3.61267C18.1804 3.624 18.1574 3.63532 18.1459 3.6693C17.5134 4.14495 14.627 6.07021 12.051 3.70327L12.0165 3.6693C11.9935 3.64665 11.959 3.624 11.913 3.624C11.8785 3.624 11.8325 3.63532 11.8095 3.6693L11.775 3.70327C9.19909 6.07021 6.31263 4.14495 5.68015 3.6693C5.66865 3.64665 5.63415 3.624 5.61115 3.61267C5.59965 3.60135 5.57665 3.60135 5.56515 3.60135C5.54215 3.60135 5.51915 3.60135 5.50765 3.61267C5.48465 3.63532 5.46165 3.64665 5.43865 3.6693C3.32269 5.62853 0.999725 4.7565 0.252238 4.38278C0.229238 4.37145 0.206238 4.36013 0.183239 4.3488C0.171739 4.3488 0.16024 4.33748 0.16024 4.33748C0.0797411 4.33748 0.0107422 4.40543 0.0107422 4.4847V5.4813C0.0107422 5.52661 0.0222419 5.56058 0.0567414 5.58323C2.4832 7.66704 4.79466 5.71913 5.32365 5.19818Z" fill="white"/>
<path d="M0.172498 0.747452C0.160998 0.747452 0.149498 0.747452 0.149498 0.747452C0.0689989 0.747452 0 0.815403 0 0.894678V1.87996C0 1.92526 0.0114998 1.95923 0.0459992 1.98188C2.48396 4.06569 4.79542 2.11778 5.32441 1.59683C5.33591 1.5855 5.34741 1.56286 5.35891 1.55153C5.38191 1.54021 5.40491 1.52888 5.43941 1.52888C5.47391 1.52888 5.50841 1.54021 5.54291 1.56286C5.54291 1.56286 5.5429 1.57418 5.5544 1.57418C8.31436 4.16761 11.2008 2.06116 11.7988 1.57418L11.8563 1.51755C11.8678 1.50623 11.8908 1.50623 11.9138 1.50623C11.9368 1.50623 11.9598 1.50623 11.9713 1.51755L12.0288 1.57418C12.6268 2.06116 15.5247 4.16761 18.2732 1.57418C18.2732 1.57418 18.2732 1.57418 18.2847 1.56286C18.3077 1.54021 18.3422 1.52888 18.3767 1.52888C18.4112 1.52888 18.4342 1.54021 18.4572 1.55153C18.4802 1.56286 18.4802 1.57418 18.5032 1.59683C19.0322 2.11778 21.3436 4.06569 23.7816 1.98188C23.8046 1.95923 23.8276 1.92526 23.8276 1.87996V0.894678C23.8276 0.815403 23.7701 0.747452 23.6896 0.747452C23.6781 0.747452 23.6666 0.747452 23.6551 0.747452C23.6321 0.758777 23.6091 0.770102 23.5861 0.781427C22.8386 1.15515 20.5041 2.02718 18.3997 0.0679496C18.3767 0.0452995 18.3537 0.0339743 18.3422 0.0113242C18.3192 -8.20577e-07 18.3077 0 18.2847 0C18.2732 0 18.2502 -8.20577e-07 18.2387 0.0113242C18.2042 0.0226493 18.1812 0.0452995 18.1697 0.0679496C17.5372 0.543601 14.6508 2.46886 12.0748 0.101924L12.0403 0.0679496C12.0173 0.0452995 11.9713 0.0226495 11.9368 0.0226495C11.9023 0.0226495 11.8563 0.0452995 11.8333 0.0679496L11.7873 0.101924C9.21134 2.46886 6.32489 0.543601 5.6924 0.0679496C5.6809 0.0452995 5.6464 0.0226493 5.6234 0.0113242C5.6119 0.0113242 5.6004 0 5.5774 0C5.55441 0 5.53141 -8.20577e-07 5.51991 0.0113242C5.49691 0.0339743 5.47391 0.0566246 5.46241 0.0679496C3.34644 2.03851 1.02348 1.15515 0.275995 0.781427C0.218496 0.770102 0.195497 0.758777 0.172498 0.747452Z" fill="white"/>
</svg>
