<svg width="28" height="28" viewBox="0 0 28 28" fill="none" xmlns="http://www.w3.org/2000/svg">
<path d="M9.4817 26.7334V27.5884V27.6042V27.62C9.49518 27.8258 9.63006 28 9.81888 28C9.81888 28 9.81888 28 9.83237 28H18.3969C18.3969 28 18.3969 28 18.4104 28C18.4239 28 18.4104 28 18.4239 28C18.6127 28 18.7611 27.81 18.7611 27.5884V26.6226C23.5896 24.7702 27.2042 20.1789 28 14.5902C28 14.5744 28 14.5744 28 14.5585C28 14.5427 28 14.5269 28 14.4952C28 14.2735 27.8382 14.0836 27.6493 14.0836H0.512524H0.350675C0.16185 14.0836 0 14.2735 0 14.4952L0.0134878 14.6693C0.849711 20.3372 4.55877 24.9444 9.4817 26.7334Z" fill="white"/>
<path d="M18.7475 0.420239C18.6396 0.610224 15.996 5.07488 18.8014 8.66877C20.0962 10.3311 19.9748 11.7877 19.6107 12.7693H21.418C21.7821 11.3127 21.6338 9.49204 20.1636 7.60802C18.1001 4.94822 20.1906 1.35433 20.2176 1.30684C20.4604 0.895201 20.339 0.372741 19.9209 0.119428C19.5297 -0.118054 19.0037 0.00860358 18.7475 0.420239Z" fill="white"/>
<path d="M14.1876 12.7695H15.9949C16.3591 11.313 16.2107 9.4923 14.7406 7.60827C12.6635 4.94848 14.7676 1.35459 14.7946 1.30709C15.0373 0.895457 14.9159 0.372997 14.4978 0.119683C14.0932 -0.117799 13.5537 0.00885887 13.3109 0.404662C13.203 0.594647 10.5595 5.04347 13.3649 8.65319C14.6597 10.3314 14.5518 11.788 14.1876 12.7695Z" fill="white"/>
<path d="M7.88928 0.420239C7.76789 0.610224 5.13784 5.07488 7.94323 8.66877C9.23803 10.3311 9.11664 11.7877 8.75248 12.7693H10.5598C10.924 11.3127 10.7756 9.49204 9.30547 7.60802C7.22839 4.94822 9.33244 1.35433 9.35942 1.30684C9.60219 0.895201 9.4808 0.372741 9.06269 0.119428C8.65807 -0.118054 8.13206 0.00860358 7.88928 0.420239Z" fill="white"/>
</svg>
