<svg width="33" height="24" viewBox="0 0 33 24" fill="none" xmlns="http://www.w3.org/2000/svg">
<path d="M32.3536 4.35355C32.5488 4.15829 32.5488 3.84171 32.3536 3.64645L29.1716 0.464466C28.9763 0.269204 28.6597 0.269204 28.4645 0.464466C28.2692 0.659728 28.2692 0.976311 28.4645 1.17157L31.2929 4L28.4645 6.82843C28.2692 7.02369 28.2692 7.34027 28.4645 7.53553C28.6597 7.7308 28.9763 7.7308 29.1716 7.53553L32.3536 4.35355ZM0 4.5H32V3.5H0V4.5Z" fill="black"/>
<path d="M32.3536 20.3536C32.5488 20.1583 32.5488 19.8417 32.3536 19.6464L29.1716 16.4645C28.9763 16.2692 28.6597 16.2692 28.4645 16.4645C28.2692 16.6597 28.2692 16.9763 28.4645 17.1716L31.2929 20L28.4645 22.8284C28.2692 23.0237 28.2692 23.3403 28.4645 23.5355C28.6597 23.7308 28.9763 23.7308 29.1716 23.5355L32.3536 20.3536ZM0 20.5H32V19.5H0V20.5Z" fill="#BF7C0E"/>
</svg>
