<svg width="16" height="16" viewBox="0 0 16 16" fill="none" xmlns="http://www.w3.org/2000/svg">
<rect x="12" y="10" width="1" height="6" fill="black"/>
<rect x="12" width="1" height="7" fill="black"/>
<rect y="4" width="1" height="11" fill="black"/>
<rect x="16" y="3" width="1" height="7" transform="rotate(90 16 3)" fill="black"/>
<rect x="6" y="3" width="1" height="6" transform="rotate(90 6 3)" fill="black"/>
<rect x="12" y="15" width="1" height="12" transform="rotate(90 12 15)" fill="black"/>
</svg>
