<svg width="65" height="86" viewBox="0 0 65 86" fill="none" xmlns="http://www.w3.org/2000/svg">
<ellipse cx="37.2988" cy="4.68913" rx="3.21739" ry="2.95918" transform="rotate(-19.2348 37.2988 4.68913)" fill="black"/>
<ellipse cx="27.0048" cy="82.0495" rx="3.21739" ry="2.95918" transform="rotate(-19.2348 27.0048 82.0495)" fill="black"/>
<line y1="-0.5" x2="79.3501" y2="-0.5" transform="matrix(0.126259 -0.991997 0.998001 0.0631927 27.7998 82.874)" stroke="black"/>
</svg>
