<svg width="77" height="153" viewBox="0 0 77 153" fill="none" xmlns="http://www.w3.org/2000/svg">
<ellipse cx="55.3767" cy="72.7181" rx="3.21739" ry="2.95918" transform="rotate(-14.3461 55.3767 72.7181)" fill="black"/>
<ellipse cx="26.8698" cy="6.70252" rx="3.21739" ry="2.95918" transform="rotate(-14.3461 26.8698 6.70252)" fill="black"/>
<ellipse cx="39.5241" cy="149.005" rx="3.21739" ry="2.95918" transform="rotate(-14.3461 39.5241 149.005)" fill="black"/>
<line y1="-0.5" x2="79.3501" y2="-0.5" transform="matrix(0.210339 -0.977629 0.988985 0.148013 40.2451 149.895)" stroke="black"/>
<line y1="-0.5" x2="71.9076" y2="-0.5" transform="matrix(0.396439 0.918061 -0.927278 0.374372 26.8701 6.70312)" stroke="black"/>
</svg>
